[
    {
        "path": "./scss/test.scss",
        "pathType": "project",
        "compiler": "scss"
    },
    {
        "path": "node_modules/materialize-css/sass/components/globals",
        "pathType":"module",
        "type":"globals",
        "compiler":"scss",
        "framework":"materialize",
        "required":[
            "node_modules/materialize-css/sass/components/color-variables",   
            "node_modules/materialize-css/sass/components/variables",
            "node_modules/materialize-css/sass/components/global"  
        ],
        "insert":[
            "radio-buttons.scss",
            "buttons.scss"
        ]
    },
    {
        "path": "node_modules/materialize-css/sass/components/forms/radio-buttons",
        "pathType": "module",
        "type":"component",
        "compiler": "scss",
        "framework": "materialize"
    },
    {
        "path": "node_modules/materialize-css/sass/components/buttons",
        "pathType": "module",
        "type":"component",
        "compiler": "scSS",
        "framework": "materialize"
    },
    {
        "path": "node_modules/bootstrap/less/buttons",
        "pathType": "module",
        "compiler": "less",
        "framework": "bootstrap",
        "required": [
            "node_modules/bootstrap/less/variables.less",   
            "node_modules/bootstrap/less/mixins.less"   
        ]
    }
]
